id,name,model_id:id,group_id:id,perm_read,perm_write,perm_create,perm_unlink
access_hr_expense_cash_employee,hr.expense.cash.employee,model_hr_expense_cash,base.group_user,1,1,1,1
access_hr_expense_cash_line_employee,hr.expense.cash.line.employee,model_hr_expense_cash_line,base.group_user,1,1,1,1
access_hr_expense_after_report_line_employee,hr.expense.after.report.line.employee,model_hr_expense_after_report_line,base.group_user,1,1,1,1
access_cash_expense_type_employee,cash.expense.type.employee,model_cash_expense_type,base.group_user,1,1,1,1