id,name,model_id:id,group_id:id,perm_read,perm_write,perm_create,perm_unlink
access_hr_regulation_user,access_hr_regulation_user,model_hr_regulation,base.group_user,1,0,0,0
access_hr_regulation_manager,access_hr_regulation_manager,model_hr_regulation,l10n_mn_hr_regulation.group_hr_regulation,1,1,1,1
access_hr_regulation_type_user,access_hr_regulation_type_user,model_hr_regulation_type,base.group_user,1,0,0,0
access_hr_regulation_type_manager,access_hr_regulation_type_manager,model_hr_regulation_type,l10n_mn_hr_regulation.group_hr_regulation,1,1,1,1
access_hr_regulation_employee_user,access_hr_regulation_employee_user,model_hr_regulation_employee,base.group_user,1,0,0,0
access_hr_regulation_employee_manager,access_hr_regulation_employee_manager,model_hr_regulation_employee,l10n_mn_hr_regulation.group_hr_regulation,1,1,1,1
access_regulation_type_fields_user,access_regulation_type_fields_user,model_regulation_type_fields,base.group_user,1,0,0,0
access_regulation_type_fields_manager,access_regulation_type_fields_manager,model_regulation_type_fields,l10n_mn_hr_regulation.group_hr_regulation,1,1,1,1
