id,name,model_id:id,group_id:id,perm_read,perm_write,perm_create,perm_unlink
access_work_skill_user,access.work.skill.user,model_hr_work_skill,hr.group_hr_user,1,0,0,0
access_work_skill_manager,access.work.skill.manager,model_hr_work_skill,hr.group_hr_manager,1,1,1,1
access_hr_certificate_user,access.hr.certificate.user,model_hr_certificate,hr.group_hr_user,1,0,0,0
access_hr_certificate_manager,access.hr.certificate.manager,model_hr_certificate,hr.group_hr_manager,1,1,1,1
access_hr_cv_settings_user,access.hr.cv.settings.user,model_hr_cv_settings,hr.group_hr_user,1,0,0,0
access_hr_cv_settings_manager,access.hr.cv.settings.manager,model_hr_cv_settings,hr.group_hr_manager,1,1,1,1
access_hr_job_type_user,access_hr_job_type_user,model_hr_job_type,hr.group_hr_user,1,0,0,0
access_hr_job_type_manager,access_hr_job_type_manager,model_hr_job_type,hr.group_hr_manager,1,1,1,1
access_hr_course_user,access_hr_course_user,model_hr_course,hr.group_hr_user,1,0,0,0
access_hr_course_manager,access_hr_course_manager,model_hr_course,hr.group_hr_manager,1,1,1,1
access_hr_work_skill_user,access_hr_work_skill_user,model_hr_work_skill,hr.group_hr_user,1,0,0,0
access_hr_work_skill_manager,access_hr_work_skill_manager,model_hr_work_skill,hr.group_hr_manager,1,1,1,1
access_hr_certificate_user,access_hr_certificate_user,model_hr_certificate,hr.group_hr_user,1,0,0,0
access_hr_certificate_manager,access_hr_certificate_manager,model_hr_certificate,hr.group_hr_manager,1,1,1,1
access_hr_education_level_user,access_hr_education_level_user,model_hr_education_level,hr.group_hr_user,1,0,0,0
access_hr_education_level_manager,access_hr_education_level_manager,model_hr_education_level,hr.group_hr_manager,1,1,1,1
access_hr_interviewers_user,access_hr_interviewers_user,model_hr_interviewers,hr.group_hr_user,1,0,0,0
access_hr_interviewers_manager,access_hr_interviewers_manager,model_hr_interviewers,hr.group_hr_manager,1,1,1,1
access_hr_verify_work_user,access_hr_verify_work_user,model_hr_verify_work,hr.group_hr_user,1,0,0,0
access_hr_verify_work_manager,access_hr_verify_work_manager,model_hr_verify_work,hr.group_hr_manager,1,1,1,1
access_model_hr_job_classification_user,access_model_hr_job_classification_user,model_hr_job_classification,hr.group_hr_user,1,0,0,0
access_model_hr_job_classification_manager,access_model_hr_job_classification_manager,model_hr_job_classification,hr.group_hr_manager,1,1,1,1
access_hr_language_user,access_hr_language_user,model_hr_language,hr.group_hr_user,1,0,0,0
access_hr_language_manager,access_hr_language_manager,model_hr_language,hr.group_hr_manager,1,1,1,1
access_hr_application_summary_user,access_hr_application_summary_user,model_hr_application_summary,hr.group_hr_user,1,0,0,0
access_hr_application_summary_manager,access_hr_application_summary_manager,model_hr_application_summary,hr.group_hr_manager,1,1,1,1
access_hr_cv_settings_public,access_hr_cv_settings_public,model_hr_cv_settings,,1,0,0,0