id,name,model_id:id,group_id:id,perm_read,perm_write,perm_create,perm_unlink
access_loan_order_seasonal_report,loan.order.seasonal.report,model_loan_order_seasonal_report,l10n_mn_loan_management.group_loan_manager,1,1,1,1
access_loan_order_seasonal_report_alm,loan.order.seasonal.report.alm,model_loan_order_seasonal_report_alm,l10n_mn_loan_management.group_loan_manager,1,1,1,1
access_loan_order_seasonal_report_bond,loan.order.seasonal.report.bond,model_loan_order_seasonal_report_bond,l10n_mn_loan_management.group_loan_manager,1,1,1,1
access_loan_order_seasonal_report_forex,loan.order.seasonal.report.forex,model_loan_order_seasonal_report_forex,l10n_mn_loan_management.group_loan_manager,1,1,1,1
access_loan_order_seasonal_report_insider,loan.order.seasonal.report.insider,model_loan_order_seasonal_report_insider,l10n_mn_loan_management.group_loan_manager,1,1,1,1
access_loan_order_seasonal_report_ipotec,loan.order.seasonal.report.ipotec,model_loan_order_seasonal_report_ipotec,l10n_mn_loan_management.group_loan_manager,1,1,1,1
access_loan_order_seasonal_report_money_transfer,loan.order.seasonal.report.money.transfer,model_loan_order_seasonal_report_money_transfer,l10n_mn_loan_management.group_loan_manager,1,1,1,1
access_loan_order_seasonal_report_off_balance,loan.order.seasonal.report.off.balance,model_loan_order_seasonal_report_off_balance,l10n_mn_loan_management.group_loan_manager,1,1,1,1
access_loan_order_seasonal_report_provide,loan.order.seasonal.report.provide,model_loan_order_seasonal_report_provide,l10n_mn_loan_management.group_loan_manager,1,1,1,1
access_loan_order_seasonal_report_securities,loan.order.seasonal.report.securities,model_loan_order_seasonal_report_securities,l10n_mn_loan_management.group_loan_manager,1,1,1,1
access_loan_order_seasonal_report_source,loan.order.seasonal.report.source,model_loan_order_seasonal_report_source,l10n_mn_loan_management.group_loan_manager,1,1,1,1
access_loan_order_seasonal_report_statistic,loan.order.seasonal.report.statistic,model_loan_order_seasonal_report_statistic,l10n_mn_loan_management.group_loan_manager,1,1,1,1
access_loan_order_seasonal_report_top_forty,loan.order.seasonal.report.top.forty,model_loan_order_seasonal_report_top_forty,l10n_mn_loan_management.group_loan_manager,1,1,1,1
access_loan_order_seasonal_report_trust,loan.order.seasonal.report.trust,model_loan_order_seasonal_report_trust,l10n_mn_loan_management.group_loan_manager,1,1,1,1







