"id","name","model_id:id","group_id:id","perm_read","perm_write","perm_create","perm_unlink"
"access_technic_parts_move_technic_user","access.technic.parts.move.technic.user","model_technic_parts_move","l10n_mn_technic.group_user",1,1,1,1
"access_technic_parts_move_wizard_technic_user","access.technic.parts.move.wizard.technic.user","model_technic_parts_move_wizard","l10n_mn_technic.group_user",1,1,1,1
"access_technic_parts_user_daily_usage","access.technic.parts.user.daily_usage","model_technic_parts_daily_usage","l10n_mn_technic_parts.group_user",1,0,0,0
"access_technic_parts_manager_daily_usage","access.technic.parts.manager.daily.usage","model_technic_parts_daily_usage","l10n_mn_technic_parts.group_manager",1,1,1,1
"access_technic_user_daily_usage","access.technic.user.daily.usage","model_technic_parts_daily_usage","l10n_mn_technic.group_user",1,0,0,0
"access_technic_manager_daily_usage","access.technic.manager.daily.usage","model_technic_parts_daily_usage","l10n_mn_technic.group_manager",1,1,1,1
"access_technic_parts_move_technic_part_user","access.technic.parts.move.technic.part.user","model_technic_parts_move","l10n_mn_technic_parts.group_user",1,1,1,1
"access_technic_parts_move_wizard_technic_part_user","access.technic.parts.move.wizard.technic.part.user","model_technic_parts_move_wizard","l10n_mn_technic_parts.group_user",1,1,1,1