id,name,model_id:id,group_id:id,perm_read,perm_write,perm_create,perm_unlink
access_hr_training_user,hr.employee.training.user,model_hr_training,base.group_user,1,0,0,0
access_hr_training_type_user,hr.employee.training.type.user,model_hr_training_type,base.group_user,1,0,0,0
access_hr_training_line_user,hr.employee.training.line.user,model_hr_training_line,base.group_user,1,0,0,0
access_hr_training_training_user,access_hr_training_user,model_hr_training,group_training_user,1,1,1,0
access_hr_training_type_training_user,access_hr_training_type_user,model_hr_training_type,group_training_user,1,0,0,0
access_hr_training_line_training_user,access_hr_training_line_user,model_hr_training_line,group_training_user,1,1,1,0
access_hr_training_plan_training_user,access_hr_training_plan_user,model_hr_training_plan,group_training_user,1,1,1,0
access_hr_training_certificate_user,access_hr_training_certificate_user,l10n_mn_hr.model_hr_certificate,group_training_user,1,1,1,0
access_hr_training_manager,hr.employee.training.manager,model_hr_training,group_training_manager,1,1,1,1
access_hr_training_type_manager,hr.employee.training.type.manager,model_hr_training_type,group_training_manager,1,1,1,1
access_hr_training_line_manager,hr.employee.training.line.manager,model_hr_training_line,group_training_manager,1,1,1,1
access_hr_training_plan_manager,hr.training.plan.manager,model_hr_training_plan,group_training_manager,1,1,1,1
