id,name,model_id:id,group_id:id,perm_read,perm_write,perm_create,perm_unlink
access_mrp_pos_user,mrp.pos,model_mrp_pos,mrp.group_mrp_user,1,1,1,0
access_mrp_pos_manager,mrp.pos.manager,model_mrp_pos,mrp.group_mrp_manager,1,1,1,1
