id,name,model_id:id,group_id:id,perm_read,perm_write,perm_create,perm_unlink
access_l10n_sale_customer_bonus,l10n.mn.sale.customer.user,l10n_mn_sale_customer_bonus.model_sale_customer_bonus,base.group_user,1,0,0,0
access_l10n_sale_customer_bonus_reward_settings,l10n.mn.sale.customer.reward.settings.user,l10n_mn_sale_customer_bonus.model_sale_reward_settings,base.group_user,1,0,0,0
access_l10n_sale_customer_bonus_sales_manager,l10n.mn.sale.customer.sales.manager,l10n_mn_sale_customer_bonus.model_sale_customer_bonus,sales_team.group_sale_manager,1,1,1,1
access_l10n_sale_customer_bonus_reward_settings_sales_manager,l10n.mn.sale.customer.reward.settings.sales.manager,l10n_mn_sale_customer_bonus.model_sale_reward_settings,sales_team.group_sale_manager,1,1,1,1
access_l10n_sale_customer_bonus_account_user,l10n.mn.sale.customer.account.user,l10n_mn_sale_customer_bonus.model_sale_customer_bonus,account.group_account_user,1,1,1,1
access_l10n_sale_customer_bonus_reward_settings_account_user,l10n.mn.sale.customer.reward.settings.account_user,l10n_mn_sale_customer_bonus.model_sale_reward_settings,account.group_account_user,1,1,1,1
access_l10n_sale_customer_bonus_account_manager,l10n.mn.sale.customer.account.manager,l10n_mn_sale_customer_bonus.model_sale_customer_bonus,account.group_account_manager,1,1,1,1
access_l10n_sale_customer_bonus_reward_settings_account_manager,l10n.mn.sale.customer.reward.settings.account.manager,l10n_mn_sale_customer_bonus.model_sale_reward_settings,account.group_account_manager,1,1,1,1
access_l10n_sale_customer_bonus_line_user,l10n.mn.sale.customer.sale.customer.bonus.line.name,l10n_mn_sale_customer_bonus.model_sale_customer_bonus_line,base.group_user,1,1,1,1
access_l10n_sale_customer_bonus_reward_line_user,l10n.mn.sale.customer.sale.customer.bonus.reward.line.name,l10n_mn_sale_customer_bonus.model_sale_customer_bonus_reward_line,base.group_user,1,1,1,1
access_l10n_sale_customer_bonus_reward_sale_amount_line_sales_manager,l10n.mn.sale.customer.reward.sale.amount.line.sales.manager,l10n_mn_sale_customer_bonus.model_sale_reward_sale_amount_line,sales_team.group_sale_manager,1,1,1,1
access_l10n_sale_customer_bonus_sale_reward_amount_line_account_manager,l10n.mn.sale.customer.reward.sale.amount.line.account.manager,l10n_mn_sale_customer_bonus.model_sale_reward_sale_amount_line,account.group_account_manager,1,1,1,1
access_l10n_sale_customer_bonus_sale_reward_amount_line_account_user,l10n.mn.sale.customer.sale.reward.sale.amount.line.account.user,l10n_mn_sale_customer_bonus.model_sale_reward_sale_amount_line,account.group_account_user,1,1,1,1
access_l10n_sale_customer_bonus_reward_product_amount_line_sales_manager,l10n.mn.sale.customer.reward.product.amount.line.sales.manager,l10n_mn_sale_customer_bonus.model_sale_reward_product_amount_line,sales_team.group_sale_manager,1,1,1,1
access_l10n_sale_customer_bonus_product_reward_amount_line_account_manager,l10n.mn.sale.customer.reward.product.amount.line.account.manager,l10n_mn_sale_customer_bonus.model_sale_reward_product_amount_line,account.group_account_manager,1,1,1,1
access_l10n_sale_customer_bonus_product_reward_amount_line_account_user,l10n.mn.sale.customer.sale.reward.product.amount.line.account.user,l10n_mn_sale_customer_bonus.model_sale_reward_product_amount_line,account.group_account_user,1,1,1,1

