id,name,model_id:id,group_id:id,perm_read,perm_write,perm_create,perm_unlink
access_account_proportional_deduction_vat_user,access_account_proportional_deduction_vat_user,model_account_proportional_deduction_vat,account.group_account_user,1,1,1,1
access_account_proportional_deduction_vat_manager,access_account_proportional_deduction_vat_manager,model_account_proportional_deduction_vat,account.group_account_manager,1,1,1,1
access_account_proportional_deduction_vat_line_user,access_account_proportional_deduction_vat_line_user,model_account_proportional_deduction_vat_line,account.group_account_user,1,1,1,1
access_account_proportional_deduction_vat_line_manager,access_account_proportional_deduction_vat_line_manager,model_account_proportional_deduction_vat_line,account.group_account_manager,1,1,1,1