id,name,model_id:id,group_id:id,perm_read,perm_write,perm_create,perm_unlink
access_hr_overtime_request_base_user,l10n.mn.hr.overtime.request,model_hr_overtime_request,base.group_user,1,1,1,0
access_hr_overtime_request_line_base_user,l10n.mn.hr.overtime.line,model_hr_overtime_request_line,base.group_user,1,1,1,1
access_hr_overtime_request_user,l10n.mn.hr.overtime.request,model_hr_overtime_request,hr.group_hr_user,1,1,1,1
access_hr_overtime_request_manager,l10n.mn.hr.overtime.request,model_hr_overtime_request,hr.group_hr_manager,1,1,1,1
access_hr_overtime_request_line_user,l10n.mn.hr.overtime.line,model_hr_overtime_request_line,hr.group_hr_user,1,1,1,1
access_hr_overtime_request_line_manager,l10n.mn.hr.overtime.line,model_hr_overtime_request_line,hr.group_hr_manager,1,1,1,1