id,name,model_id:id,group_id:id,perm_read,perm_write,perm_create,perm_unlink
access_mrp_overhead_expense_manager,mrp.overhead.expense.manager,model_mrp_overhead_expense,account.group_account_manager,1,1,1,1
access_mrp_overhead_expense_user,mrp.overhead.expense.user,model_mrp_overhead_expense,mrp.group_mrp_user,1,0,0,0
access_mrp_workcenter_overhead_expense_user,mrp.workcenter.overhead.expense.user,model_mrp_workcenter_overhead_expense,mrp.group_mrp_user,1,0,0,0
access_mrp_workcenter_overhead_expense_manager,mrp.workcenter.overhead.expense.manager,model_mrp_workcenter_overhead_expense,account.group_account_manager,1,1,1,1
access_mrp_production_overhead_expense_user,mrp.production.overhead.expense.user,model_mrp_production_overhead_expense,mrp.group_mrp_user,1,0,0,0
access_mrp_production_overhead_expense_manager,mrp.production.overhead.expense.manager,model_mrp_production_overhead_expense,account.group_account_manager,1,1,1,1
access_mrp_bom_overhead_expense_user,mrp.bom.overhead.expense.user,model_mrp_bom_overhead_expense,mrp.group_mrp_user,1,0,0,0
access_mrp_bom_overhead_expense_manager,mrp.bom.overhead.expense.manager,model_mrp_bom_overhead_expense,account.group_account_manager,1,1,1,1
