id,name,model_id:id,group_id:id,perm_read,perm_write,perm_create,perm_unlink
access_direct_sheet_user,access.direct.sheet.user,model_hr_direct_sheet,base.group_user,1,0,0,0
access_direct_sheet_hr_user,access.direct.sheet.hr.user,model_hr_direct_sheet,hr.group_hr_user,1,1,1,1
access_direct_sheet_manager,access.direct.sheet.manager,model_hr_direct_sheet,hr.group_hr_manager,1,1,1,1
access_direct_sheet_lines_user,access.hr.direct.lines.user,model_hr_direct_lines,base.group_user,1,1,1,0
access_direct_sheet_lines_hr_employee,access.hr.direct.lines.hr.employee,model_hr_direct_lines,base.group_user,1,1,1,1
access_direct_sheet_history_user,access.direct.history.lines.user,model_direct_history_lines,base.group_user,1,1,1,0
access_direct_sheet_history_hr_employee,access.direct.history.lines.hr.employee,model_direct_history_lines,base.group_user,1,1,1,1
access_hr_job_direct_schedule_user,access.hr.job.direct.schedule.user,model_hr_job_direct_schedule,base.group_user,1,0,0,0
access_hr_job_direct_schedule_hr_manager,access.hr.job.direct.schedule.employee.manager,model_hr_job_direct_schedule,hr_recruitment.group_hr_recruitment_manager,1,1,1,1
