id,name,model_id:id,group_id:id,perm_read,perm_write,perm_create,perm_unlink
access_hr_contract_group_user,hr.contract.group_user,hr_contract.model_hr_contract,base.group_user,1,0,0,0
access_hr_award_manager,hr.award.manager,model_hr_award,hr.group_hr_manager,1,1,1,1
access_hr_award_type_manager,hr.award.type.manager,model_hr_award_type,hr.group_hr_manager,1,1,1,1
access_hr_benefit_manager,hr.benefit.manager,model_hr_benefit,hr.group_hr_manager,1,1,1,1
access_hr_benefit_type_manager,hr.benefit.type.manager,model_hr_benefit_type,hr.group_hr_manager,1,1,1,1
access_hr_certificate_manager,hr.certificate.manager,model_hr_certificate,hr.group_hr_manager,1,1,1,1
access_hr_driver_license_manager,hr.driver.license.manager,model_hr_driver_license,hr.group_hr_manager,1,1,1,1
access_hr_education_manager,hr.education.manager,model_hr_education,hr.group_hr_manager,1,1,1,1
access_hr_employee_family_line_manager,hr.employee.family.line.manager,model_hr_employee_family_line,hr.group_hr_manager,1,1,1,1
access_hr_employee_family_member_manager,hr.employee.family.member.manager,model_hr_employee_family_member,hr.group_hr_manager,1,1,1,1
access_hr_employee_status_manager,hr.employee.status.manager,model_hr_employee_status,hr.group_hr_manager,1,1,1,1
access_hr_employment_manager,hr.employment.manager,model_hr_employment,hr.group_hr_manager,1,1,1,1
access_hr_job_classification_manager,hr.job.classification.manager,model_hr_job_classification,hr.group_hr_manager,1,1,1,1
access_hr_job_type_manager,hr.job.type.manager,model_hr_job_type,hr.group_hr_manager,1,1,1,1
access_hr_language_manager,hr.language.manager,model_hr_language,hr.group_hr_manager,1,1,1,1
access_hr_prize_manager,hr.prize.manager,model_hr_prize,hr.group_hr_manager,1,1,1,1
access_hr_punishment_manager,hr.punishment.manager,model_hr_punishment,hr.group_hr_manager,1,1,1,1
access_hr_school_manager,hr.school.manager,model_hr_school,hr.group_hr_manager,1,1,1,1
access_hr_software_skill_manager,hr.software.skill.manager,model_hr_software_skill,hr.group_hr_manager,1,1,1,1
access_hr_work_skill_manager,hr.work.skill.manager,model_hr_work_skill,hr.group_hr_manager,1,1,1,1
access_employee_move_line_manager,employee.move.line.manager,model_employee_move_line,hr.group_hr_manager,1,1,1,1
access_hr_award_hr_user,hr.award.hr_user,model_hr_award,hr.group_hr_user,1,1,0,0
access_hr_award_type_hr_user,hr.award.type.hr_user,model_hr_award_type,hr.group_hr_user,1,1,0,0
access_hr_benefit_hr_user,hr.benefit.hr_user,model_hr_benefit,hr.group_hr_user,1,1,0,0
access_hr_benefit_type_hr_user,hr.benefit.type.hr_user,model_hr_benefit_type,hr.group_hr_user,1,1,0,0
access_hr_certificate_hr_user,hr.certificate.hr_user,model_hr_certificate,hr.group_hr_user,1,1,0,0
access_hr_driver_license_hr_user,hr.driver.license.hr_user,model_hr_driver_license,hr.group_hr_user,1,1,0,0
access_hr_education_hr_user,hr.education.hr_user,model_hr_education,hr.group_hr_user,1,1,0,0
access_hr_employee_family_line_hr_user,hr.employee.family.line.hr_user,model_hr_employee_family_line,hr.group_hr_user,1,1,0,0
access_hr_employee_family_member_hr_user,hr.employee.family.member.hr_user,model_hr_employee_family_member,hr.group_hr_user,1,1,0,0
access_hr_employee_status_hr_user,hr.employee.status.hr_user,model_hr_employee_status,hr.group_hr_user,1,1,0,0
access_hr_employment_hr_user,hr.employment.hr_user,model_hr_employment,hr.group_hr_user,1,1,0,0
access_hr_job_classification_hr_user,hr.job.classification.hr_user,model_hr_job_classification,hr.group_hr_user,1,1,0,0
access_hr_job_type_hr_user,hr.job.type.hr_user,model_hr_job_type,hr.group_hr_user,1,1,0,0
access_hr_language_hr_user,hr.language.hr_user,model_hr_language,hr.group_hr_user,1,1,0,0
access_hr_prize_hr_user,hr.prize.hr_user,model_hr_prize,hr.group_hr_user,1,1,0,0
access_hr_punishment_hr_user,hr.punishment.hr_user,model_hr_punishment,hr.group_hr_user,1,1,0,0
access_hr_school_hr_user,hr.school.hr_user,model_hr_school,hr.group_hr_user,1,1,0,0
access_hr_software_skill_hr_user,hr.software.skill.hr_user,model_hr_software_skill,hr.group_hr_user,1,1,0,0
access_hr_work_skill_hr_user,hr.work.skill.hr_user,model_hr_work_skill,hr.group_hr_user,1,1,0,0
access_employee_move_line_hr_user,employee.move.line.hr_user,model_employee_move_line,hr.group_hr_user,1,1,0,0
access_hr_award_user,hr.award.user,model_hr_award,base.group_user,1,0,0,0
access_hr_award_type_user,hr.award.type.user,model_hr_award_type,base.group_user,1,0,0,0
access_hr_benefit_user,hr.benefit.user,model_hr_benefit,base.group_user,1,0,0,0
access_hr_benefit_type_user,hr.benefit.type.user,model_hr_benefit_type,base.group_user,1,0,0,0
access_hr_certificate_user,hr.certificate.user,model_hr_certificate,base.group_user,1,0,0,0
access_hr_driver_license_user,hr.driver.license.user,model_hr_driver_license,base.group_user,1,0,0,0
access_hr_education_user,hr.education.user,model_hr_education,base.group_user,1,0,0,0
access_hr_employee_family_line_user,hr.employee.family.line.user,model_hr_employee_family_line,base.group_user,1,0,0,0
access_hr_employee_family_member_user,hr.employee.family.member.user,model_hr_employee_family_member,base.group_user,1,0,0,0
access_hr_employee_status_user,hr.employee.status.user,model_hr_employee_status,base.group_user,1,0,0,0
access_hr_employment_user,hr.employment.user,model_hr_employment,base.group_user,1,0,0,0
access_hr_job_classification_user,hr.job.classification.user,model_hr_job_classification,base.group_user,1,0,0,0
access_hr_job_type_user,hr.job.type.user,model_hr_job_type,base.group_user,1,0,0,0
access_hr_language_user,hr.language.user,model_hr_language,base.group_user,1,0,0,0
access_hr_prize_user,hr.prize.user,model_hr_prize,base.group_user,1,0,0,0
access_hr_punishment_user,hr.punishment.user,model_hr_punishment,base.group_user,1,0,0,0
access_hr_school_user,hr.school.user,model_hr_school,base.group_user,1,0,0,0
access_hr_software_skill_user,hr.software.skill.user,model_hr_software_skill,base.group_user,1,0,0,0
access_hr_work_skill_user,hr.work.skill.user,model_hr_work_skill,base.group_user,1,0,0,0
access_employee_move_line_user,employee.move.line.user,model_employee_move_line,base.group_user,1,0,0,0
access_hr_apartment_condition_manager,hr.apartment.condition.manager,model_hr_apartment_condition,hr.group_hr_manager,1,1,1,1
access_hr_apartment_condition_hr_user,hr.apartment.condition.hr_user,model_hr_apartment_condition,hr.group_hr_user,1,1,0,0
access_hr_apartment_condition_user,hr.apartment.condition.user,model_hr_apartment_condition,base.group_user,1,0,0,0
access_hr_software_technic,hr.software.technic,model_software_technic,base.group_user,1,1,1,1
access_hr_disciplinary_measure,hr.disciplinary.measure,model_hr_disciplinary_measure,hr.group_hr_user,1,1,1,1
access_employee_move_manager,employee.move.manager,model_employee_move,hr.group_hr_manager,1,1,1,1
access_employee_move_user,employee.move.user,model_employee_move,hr.group_hr_user,1,0,0,0
access_hr_holiday_days_config_manager,hr.holiday.days.config.manager,model_hr_holiday_days_config,hr.group_hr_manager,1,1,1,1
access_hr_holiday_days_config_user,hr.holiday.days.config.user,model_hr_holiday_days_config,base.group_user,1,0,0,0
access_employee_move_user,employee.move.group_user,model_employee_move,base.group_user,1,0,0,0
access_driver_license_category_manager,access.driver.license.category.manager,model_driver_license_category,hr.group_hr_manager,1,1,1,1
access_driver_license_category_user,access.driver.license.category.user,model_driver_license_category,hr.group_hr_user,1,1,0,0
access_driver_license_category_base_user,access.driver.license.category.base.user,model_driver_license_category,base.group_user,1,0,0,0
access_hr_nationality_user,access.hr.nationality.user,model_hr_nationality,base.group_user,1,0,0,0
access_hr_nationality_hr_user,access.hr.nationality.hr_user,model_hr_nationality,hr.group_hr_user,1,1,0,0
access_hr_nationality_manager,access.hr.nationality.manager,model_hr_nationality,hr.group_hr_manager,1,1,1,1
access_hr_social_origin_user,access.hr.social.origin.user,model_hr_social_origin,base.group_user,1,0,0,0
access_hr_social_origin_hr_user,access.hr.social.origin.hr_user,model_hr_social_origin,hr.group_hr_user,1,1,0,0
access_hr_social_origin_manager,access.hr.social.origin.manager,model_hr_social_origin,hr.group_hr_manager,1,1,1,1
access_hr_talent_type_user,access.hr.talent.type.user,model_hr_talent_type,base.group_user,1,0,0,0
access_hr_talent_type_hr_user,access.hr.talent.type.hr_user,model_hr_talent_type,hr.group_hr_user,1,1,0,0
access_hr_talent_type_manager,access.hr.talent.type.manager,model_hr_talent_type,hr.group_hr_manager,1,1,1,1
access_hr_arts_sports_talent_user,access.hr.arts.sports.talent.user,model_hr_arts_sports_talent,base.group_user,1,0,0,0
access_hr_arts_sports_talent_hr_user,access.hr.arts.sports.talent.hr_user,model_hr_arts_sports_talent,hr.group_hr_user,1,1,0,0
access_hr_arts_sports_talent_manager,access.hr.arts.sports.talent.manager,model_hr_arts_sports_talent,hr.group_hr_manager,1,1,1,1
access_hr_skill_level_user,access.hr.skill.level.user,model_hr_skill_level,base.group_user,1,0,0,0
access_hr_skill_level_hr_user,access.hr.skill.level.hr_user,model_hr_skill_level,hr.group_hr_user,1,1,0,0
access_hr_skill_level_manager,access.hr.skill.level.manager,model_hr_skill_level,hr.group_hr_manager,1,1,1,1
access_worked_projects_manager,hr.worked.project.group.manager,model_worked_project,hr.group_hr_manager,1,1,1,1
access_worked_projects_rec_manager,hr.worked.project.rec.group.manager,model_worked_project,hr_recruitment.group_hr_recruitment_manager,1,1,1,1
access_worked_projects_user,hr.worked.project.group.user,model_worked_project,base.group_user,1,0,0,0
access_age_range_config_manager,hr.age.range.config.group.manager,model_hr_employee_age_range,hr.group_hr_manager,1,1,1,1
access_age_range_config_recruitment_manager,hr.age.range.config.group.recruitment_manager,model_hr_employee_age_range,hr_recruitment.group_hr_recruitment_manager,1,1,1,1
access_age_range_config_user,hr.age.range.config.group.user,model_hr_employee_age_range,base.group_user,1,0,0,0
access_hr_job_base_user_read,hr.job.base.user.group.read,model_hr_job,base.group_user,1,0,0,0
access_employee_language_manager,hr.employee.language.group.manager,model_hr_employee_lang,hr.group_hr_manager,1,1,1,1
access_employee_language_user,hr.employee.language.group.user,model_hr_employee_lang,hr.group_hr_user,1,1,1,1
access_employee_language_base_user,hr.employee.language.group.base.user,model_hr_employee_lang,base.group_user,1,1,1,0
access_hr_employment_approvation_user,access_hr_employment_approvation_user,model_hr_employment_approvation,base.group_user,1,0,0,0
access_hr_employment_approvation_hr_user,access_hr_employment_approvation_hr_user,model_hr_employment_approvation,hr.group_hr_user,1,1,1,1
access_company_employee_move_manager,company.employee.move,model_company_employee_move,hr.group_hr_manager,1,1,1,1
access_company_employee_move_user,company.employee.move,model_company_employee_move,hr.group_hr_user,1,0,0,0
access_attached_work_history_manager,access.attached.work.history.manager,model_attached_work_history,hr.group_hr_manager,1,1,1,1
access_attached_work_history_user,access.attached.work.history.user,model_attached_work_history,hr.group_hr_user,1,0,0,0
access_attached_work_history_base_user,access.attached.work.history.base.user,model_attached_work_history,base.group_user,1,0,0,0
access_hr_required_materials_manager,hr.required.materials.manager,model_hr_required_materials,hr.group_hr_manager,1,1,1,1
access_hr_required_materials_user,hr.required.materials.manager,model_hr_required_materials,base.group_user,1,1,1,1
access_hr_documentation_manager,hr.documentation.manager,model_hr_documentation,hr.group_hr_manager,1,1,1,1
access_hr_documentation_user,hr.documentation.user,model_hr_documentation,base.group_user,1,0,0,0
access_hr_required_materials_line_manager,hr.required.materials.line.manager,model_hr_required_materials_line,hr.group_hr_manager,1,1,1,1
access_hr_required_materials_line_user,hr.required.materials.line.user,model_hr_required_materials_line,base.group_user,1,1,1,1
access_hr_documentation_line_manager,hr.documentation.line.manager,model_hr_documentation_line,hr.group_hr_manager,1,1,1,1
access_hr_documentation_line_user,hr.documentation.line.user,model_hr_documentation_line,base.group_user,1,1,1,1