id,name,model_id:id,group_id:id,perm_read,perm_write,perm_create,perm_unlink
access_hr_salary_rule_employee,hr.salary.rule.employee.read,model_hr_salary_rule,base.group_user,1,0,0,0
access_employee_salary_structure_dashboard_employee,employee.salary.structure.dashboard.read,model_employee_salary_structure_dashboard,base.group_user,1,1,1,0
access_employee_salary_structure_dashboard_hr,employee.salary.structure.dashboard.hr,model_employee_salary_structure_dashboard,hr.group_hr_user,1,1,1,1
access_employee_salary_pie_dashboard_employee,employee.salary.pie.dashboard.read,model_employee_salary_pie_dashboard,base.group_user,1,1,1,0
access_employee_salary_pie_dashboard_hr,employee.salary.pie.dashboard.hr,model_employee_salary_pie_dashboard,hr.group_hr_user,1,1,1,1