id,name,model_id:id,group_id:id,perm_read,perm_write,perm_create,perm_unlink
access_account_partner_report_user,access_account_partner_report_user,model_account_partner_report,account.group_account_user,1,1,1,0
access_account_partner_report_line_user,access_account_partner_report_line_user,model_account_partner_report_line,account.group_account_user,1,1,1,0
access_account_partner_report_currency_line_user,access_account_partner_report_currency_line_user,model_account_partner_report_currency_line,account.group_account_user,1,1,1,0
access_account_partner_report_manager,access_account_partner_report_manager,model_account_partner_report,account.group_account_manager,1,1,1,1
access_account_partner_report_line_manager,access_account_partner_report_line_manager,model_account_partner_report_line,account.group_account_manager,1,1,1,1
access_account_partner_report_currency_line_manager,access_account_partner_report_currency_line_manager,model_account_partner_report_currency_line,account.group_account_manager,1,1,1,1
